{
"instructions_readme": "1) Open Chrome, 2) go to chrome://tracing, 3) click Load, 4) navigate to this file.",
"traceEvents":[
{ "cat":"", "pid":1, "tid":0, "ts":0, "ph":"M", "name":"process_name", "args": { "name":"tundra" } }
,{ "pid":1, "tid":0, "ts":509808732493, "dur":845, "ph":"X", "name": "DriverCheckDagSignatures",  "args": { "durationMS":1, "detail":"" }}
,{ "pid":1, "tid":0, "ts":509808733339, "dur":6772, "ph":"X", "name": "DriverInitData",  "args": { "durationMS":7, "detail":"" }}
,{ "pid":1, "tid":0, "ts":509808740243, "dur":13, "ph":"X", "name": "Tundra",  "args": { "durationMS":0, "detail":"RemoveStaleOutputs" }}
,{ "pid":1, "tid":0, "ts":509808740271, "dur":1, "ph":"X", "name": "Tundra",  "args": { "durationMS":0, "detail":"PrepareNodes" }}
,{ "pid":1, "tid":0, "ts":509808740273, "dur":569, "ph":"X", "name": "Tundra",  "args": { "durationMS":1, "detail":"BuildQueueInit" }}
,{ "pid":1, "tid":0, "ts":509890037477, "dur":13917, "ph":"X", "name": "JoinBuildThread",  "args": { "durationMS":14, "detail":"" }}
,{ "pid":1, "tid":0, "ts":509890051415, "dur":4, "ph":"X", "name": "JoinBuildThread",  "args": { "durationMS":0, "detail":"" }}
,{ "pid":1, "tid":0, "ts":509890051429, "dur":3, "ph":"X", "name": "JoinBuildThread",  "args": { "durationMS":0, "detail":"" }}
,{ "pid":1, "tid":0, "ts":509890051537, "dur":9, "ph":"X", "name": "JoinBuildThread",  "args": { "durationMS":0, "detail":"" }}
,{ "pid":1, "tid":0, "ts":509890051572, "dur":9, "ph":"X", "name": "JoinBuildThread",  "args": { "durationMS":0, "detail":"" }}
,{ "pid":1, "tid":0, "ts":509890051611, "dur":4, "ph":"X", "name": "JoinBuildThread",  "args": { "durationMS":0, "detail":"" }}
,{ "pid":1, "tid":0, "ts":509890051623, "dur":2, "ph":"X", "name": "JoinBuildThread",  "args": { "durationMS":0, "detail":"" }}
,{ "pid":1, "tid":0, "ts":509890051634, "dur":2, "ph":"X", "name": "JoinBuildThread",  "args": { "durationMS":0, "detail":"" }}
,{ "pid":1, "tid":0, "ts":509890051643, "dur":0, "ph":"X", "name": "SharedResourceDestroy",  "args": { "durationMS":0, "detail":"" }}
,{ "pid":1, "tid":0, "ts":509890051651, "dur":1972, "ph":"X", "name": "Tundra",  "args": { "durationMS":2, "detail":"Write AllBuiltNodes" }}
,{ "pid":1, "tid":1, "ts":509808741055, "dur":8914, "ph":"X", "name": "CheckInputSignature",  "args": { "durationMS":9, "detail":"Il2Cpp D:/Bharath_Augver/MultiPlayer/Multi Player/Library/Il2cppBuildCache/Android/arm64-v8a/Native/arm64-v8a/libil2cpp.so" }}
,{ "pid":1, "tid":1, "ts":509808772197, "dur":81265172, "ph":"X", "name": "Il2Cpp",  "args": { "durationMS":81265, "detail":"D:/Bharath_Augver/MultiPlayer/Multi Player/Library/Il2cppBuildCache/Android/arm64-v8a/Native/arm64-v8a/libil2cpp.so" }}
,{ "pid":1, "tid":1, "ts":509890037374, "dur":5, "ph":"X", "name": "CheckInputSignature",  "args": { "durationMS":0, "detail":"all_tundra_nodes" }}
,{ "pid":1, "tid":1, "ts":509890037385, "dur":97, "ph":"X", "name": "WaitingForWork", "cname":"thread_state_sleeping",  "args": { "durationMS":0, "detail":"" }}
,{ "pid":1, "tid":1, "ts":509890037484, "dur":13489, "ph":"X", "name": "Exiting",  "args": { "durationMS":13, "detail":"BuildLoop" }}
,{ "pid":1, "tid":2, "ts":509808741072, "dur":81296411, "ph":"X", "name": "WaitingForWork", "cname":"thread_state_sleeping",  "args": { "durationMS":81296, "detail":"" }}
,{ "pid":1, "tid":2, "ts":509890037483, "dur":13480, "ph":"X", "name": "Exiting",  "args": { "durationMS":13, "detail":"BuildLoop" }}
,{ "pid":1, "tid":3, "ts":509808741174, "dur":81296307, "ph":"X", "name": "WaitingForWork", "cname":"thread_state_sleeping",  "args": { "durationMS":81296, "detail":"" }}
,{ "pid":1, "tid":3, "ts":509890037481, "dur":13529, "ph":"X", "name": "Exiting",  "args": { "durationMS":14, "detail":"BuildLoop" }}
,{ "pid":1, "tid":4, "ts":509808741115, "dur":81296370, "ph":"X", "name": "WaitingForWork", "cname":"thread_state_sleeping",  "args": { "durationMS":81296, "detail":"" }}
,{ "pid":1, "tid":4, "ts":509890037486, "dur":13490, "ph":"X", "name": "Exiting",  "args": { "durationMS":13, "detail":"BuildLoop" }}
,{ "pid":1, "tid":5, "ts":509808741218, "dur":81296259, "ph":"X", "name": "WaitingForWork", "cname":"thread_state_sleeping",  "args": { "durationMS":81296, "detail":"" }}
,{ "pid":1, "tid":5, "ts":509890037481, "dur":13492, "ph":"X", "name": "Exiting",  "args": { "durationMS":13, "detail":"BuildLoop" }}
,{ "pid":1, "tid":6, "ts":509808741260, "dur":81296224, "ph":"X", "name": "WaitingForWork", "cname":"thread_state_sleeping",  "args": { "durationMS":81296, "detail":"" }}
,{ "pid":1, "tid":6, "ts":509890037485, "dur":13507, "ph":"X", "name": "Exiting",  "args": { "durationMS":14, "detail":"BuildLoop" }}
,{ "pid":1, "tid":7, "ts":509808741314, "dur":81296178, "ph":"X", "name": "WaitingForWork", "cname":"thread_state_sleeping",  "args": { "durationMS":81296, "detail":"" }}
,{ "pid":1, "tid":7, "ts":509890037493, "dur":13488, "ph":"X", "name": "Exiting",  "args": { "durationMS":13, "detail":"BuildLoop" }}
,{ "pid":1, "tid":8, "ts":509808741358, "dur":81296136, "ph":"X", "name": "WaitingForWork", "cname":"thread_state_sleeping",  "args": { "durationMS":81296, "detail":"" }}
,{ "pid":1, "tid":8, "ts":509890037494, "dur":13469, "ph":"X", "name": "Exiting",  "args": { "durationMS":13, "detail":"BuildLoop" }}

]
}
